"vertexlitgeneric"
{
	"$baseTexture" "models\player\home net server\zombie\zombie_hc\t_leet"
        "$envmap" 			"env_cubemap"
       "$bumpmap" "models\player\home net server\zombie\zombie_hc\t_leet_normal"
	"$normalmapalphaenvmapmask" 1
	"$envmapcontrast" 0.3
	"$envmapsaturation" 0.7
	"$envmaptint" "[ 0.36 0.36 0.36 ]"
}
