"VertexLitGeneric"
{
	"$baseTexture" "models/player/home net server/zombie/zombie_hc/Zombie_Classic_sheet"
	"VertexLitGeneric_DX9"
	{
		"$bumpmap" "models/player/home net server/zombie/zombie_hc/zombie_classic_sheet_normal"
		"$envmap" "env_cubemap"
		"$envmapcontrast" 1
		"$normalmapalphaenvmapmask" 1
	}
}
